<?xml version="1.0" encoding="UTF-8" standalone="no"?>
<svg
   xmlns:dc="http://purl.org/dc/elements/1.1/"
   xmlns:cc="http://creativecommons.org/ns#"
   xmlns:rdf="http://www.w3.org/1999/02/22-rdf-syntax-ns#"
   xmlns:svg="http://www.w3.org/2000/svg"
   xmlns="http://www.w3.org/2000/svg"
   id="svg34"
   version="1.1"
   viewBox="0 0 32 32">
  <metadata
     id="metadata40">
    <rdf:RDF>
      <cc:Work
         rdf:about="">
        <dc:format>image/svg+xml</dc:format>
        <dc:type
           rdf:resource="http://purl.org/dc/dcmitype/StillImage" />
        <dc:title></dc:title>
      </cc:Work>
    </rdf:RDF>
  </metadata>
  <defs
     id="defs38" />
  <rect
     id="rect2"
     x="0"
     y="4"
     width="4"
     height="4" />
  <rect
     id="rect4"
     x="0"
     y="12"
     width="4"
     height="4" />
  <rect
     id="rect6"
     x="0"
     y="20"
     width="4"
     height="4" />
  <rect
     id="rect8"
     x="0"
     y="28"
     width="4"
     height="4" />
  <rect
     id="rect10"
     x="8"
     y="4"
     width="4"
     height="4" />
  <rect
     id="rect12"
     x="8"
     y="12"
     width="4"
     height="4" />
  <rect
     id="rect14"
     x="8"
     y="20"
     width="4"
     height="4" />
  <rect
     id="rect16"
     x="8"
     y="28"
     width="4"
     height="4" />
  <rect
     id="rect18"
     x="16"
     y="4"
     width="4"
     height="4" />
  <rect
     id="rect20"
     x="16"
     y="12"
     width="4"
     height="4" />
  <rect
     id="rect22"
     x="16"
     y="20"
     width="4"
     height="4" />
  <rect
     id="rect24"
     x="16"
     y="28"
     width="4"
     height="4" />
  <rect
     id="rect26"
     x="24"
     y="4"
     width="4"
     height="4" />
  <rect
     id="rect28"
     x="24"
     y="12"
     width="4"
     height="4" />
  <rect
     id="rect30"
     x="24"
     y="20"
     width="4"
     height="4" />
  <rect
     id="rect32"
     x="24"
     y="28"
     width="4"
     height="4" />
</svg>
